<svg xmlns="http://www.w3.org/2000/svg" xmlns:xlink="http://www.w3.org/1999/xlink" width="20" height="20" viewBox="0 0 20 20">
  <defs>
    <clipPath id="clip-path">
      <rect id="Rectangle_10" data-name="Rectangle 10" width="20" height="20" transform="translate(1255 447)" fill="#919eab" stroke="#707070" stroke-width="1"/>
    </clipPath>
  </defs>
  <g id="Mask_Group_1" data-name="Mask Group 1" transform="translate(-1255 -447)" clip-path="url(#clip-path)">
    <g id="export" transform="translate(1255 447)">
      <path id="Path_26" data-name="Path 26" d="M6.042,20H2.292A2.294,2.294,0,0,1,0,17.708V2.292A2.294,2.294,0,0,1,2.292,0h3.75A2.293,2.293,0,0,1,8.333,2.292V17.708A2.293,2.293,0,0,1,6.042,20ZM2.292,1.25A1.043,1.043,0,0,0,1.25,2.292V17.708A1.043,1.043,0,0,0,2.292,18.75h3.75a1.043,1.043,0,0,0,1.042-1.042V2.292A1.043,1.043,0,0,0,6.042,1.25Zm0,0" fill="#919eab"/>
      <path id="Path_27" data-name="Path 27" d="M19.374,10.625h-8.75a.625.625,0,0,1,0-1.25h8.75a.625.625,0,1,1,0,1.25Zm0,0" fill="#919eab"/>
      <path id="Path_28" data-name="Path 28" d="M16.041,13.958a.625.625,0,0,1-.442-1.067L18.491,10,15.6,7.108a.625.625,0,0,1,.884-.884l3.333,3.333a.625.625,0,0,1,0,.884l-3.333,3.333A.621.621,0,0,1,16.041,13.958Zm0,0" fill="#919eab"/>
    </g>
  </g>
</svg>
