<svg xmlns="http://www.w3.org/2000/svg" xmlns:xlink="http://www.w3.org/1999/xlink" width="20" height="20" viewBox="0 0 20 20">
  <defs>
    <clipPath id="clip-path">
      <rect id="Rectangle_1" data-name="Rectangle 1" width="20" height="20" transform="translate(644 239)" fill="#919eab" stroke="#707070" stroke-width="1"/>
    </clipPath>
  </defs>
  <g id="Shop" transform="translate(-644 -239)" clip-path="url(#clip-path)">
    <g id="shopping-basket" transform="translate(644 239)">
      <g id="Group_2" data-name="Group 2">
        <g id="Group_1" data-name="Group 1">
          <path id="Path_1" data-name="Path 1" d="M18.478,6.413H17.442l-.024-.026L11.766.734a.652.652,0,1,0-.922.922L15.6,6.413H4.4L9.157,1.657A.652.652,0,0,0,8.235.734L2.582,6.387l-.024.026H1.522A1.523,1.523,0,0,0,0,7.935V8.8a1.524,1.524,0,0,0,1.4,1.517l1.25,7.5a1.95,1.95,0,0,0,1.93,1.635H15.608a1.966,1.966,0,0,0,1.937-1.68L18.61,10.32A1.524,1.524,0,0,0,20,8.8v-.87A1.523,1.523,0,0,0,18.478,6.413ZM18.7,8.8a.218.218,0,0,1-.217.217H11.957a.652.652,0,0,0,0,1.3h5.335l-1.038,7.266a.655.655,0,0,1-.646.56H4.583a.65.65,0,0,1-.643-.545L2.726,10.326H8.043a.652.652,0,1,0,0-1.3H1.522A.218.218,0,0,1,1.3,8.8v-.87a.218.218,0,0,1,.217-.217H18.478a.218.218,0,0,1,.217.217Z" fill="#919eab"/>
        </g>
      </g>
      <g id="Group_4" data-name="Group 4">
        <g id="Group_3" data-name="Group 3">
          <path id="Path_2" data-name="Path 2" d="M6.087,11.63a.652.652,0,0,0-.652.652V16.2a.652.652,0,0,0,1.3,0V12.283A.652.652,0,0,0,6.087,11.63Z" fill="#919eab"/>
        </g>
      </g>
      <g id="Group_6" data-name="Group 6">
        <g id="Group_5" data-name="Group 5">
          <path id="Path_3" data-name="Path 3" d="M10,11.63a.652.652,0,0,0-.652.652V16.2a.652.652,0,0,0,1.3,0V12.283A.652.652,0,0,0,10,11.63Z" fill="#919eab"/>
        </g>
      </g>
      <g id="Group_8" data-name="Group 8">
        <g id="Group_7" data-name="Group 7">
          <path id="Path_4" data-name="Path 4" d="M13.913,11.63a.652.652,0,0,0-.652.652V16.2a.652.652,0,0,0,1.3,0V12.283A.652.652,0,0,0,13.913,11.63Z" fill="#919eab"/>
        </g>
      </g>
    </g>
  </g>
</svg>
